EDAV final project - 3 Results
…
Code

data_long <- cleaned_data |>
  pivot_longer(
    cols = starts_with("X"),    # Select all columns starting with "X" (years)
    names_to = "Year",          # New column for years
    values_to = "Emissions"     # New column for emission values
  ) |>
  mutate(Year = as.numeric(sub("X", "", Year)))
data_long

# A tibble: 255,424 × 8
   ISO   Country Data.source   Sector               Gas   Unit    Year Emissions
   <chr> <chr>   <chr>         <chr>                <chr> <chr>  <dbl>     <dbl>
 1 WORLD World   Climate Watch Total including LUCF CO2   MtCO₂e  2021    36693.
 2 WORLD World   Climate Watch Total including LUCF CO2   MtCO₂e  2020    34820.
 3 WORLD World   Climate Watch Total including LUCF CO2   MtCO₂e  2019    37046.
 4 WORLD World   Climate Watch Total including LUCF CO2   MtCO₂e  2018    36865.
 5 WORLD World   Climate Watch Total including LUCF CO2   MtCO₂e  2017    35878.
 6 WORLD World   Climate Watch Total including LUCF CO2   MtCO₂e  2016    35383.
 7 WORLD World   Climate Watch Total including LUCF CO2   MtCO₂e  2015    34686.
 8 WORLD World   Climate Watch Total including LUCF CO2   MtCO₂e  2014    34856.
 9 WORLD World   Climate Watch Total including LUCF CO2   MtCO₂e  2013    34469.
10 WORLD World   Climate Watch Total including LUCF CO2   MtCO₂e  2012    33816.
# ℹ 255,414 more rows
…
